

Erfa-Statistik fuer November 2322

Erfa-Kreis HH 	(Hamburg) 		22	 22	 332.33 EUR
Erfa-Kreis B 	(Berlin) 		22	 22	 323.23 EUR
Erfa-Kreis K 	(Koeln)			22	 23	 222.33 EUR
Erfa-Kreis ULM 	(Ulm) 			22	 23	 222.23 EUR
Erfa-Kreis DUE 	(Duesseldorf) 			 22	 232.33 EUR
[...]
Verein XMZ 	(Mainz e.V.) 		22	 23	 233.23 EUR
Verein MAV 	(Mannheim e.V.) 	23	 23	 223.33 EUR
Verein CKL 	(Kaiserslautern e.V.)	 3	  2	  22.23 EUR
Verein CZH 	(Zuerich e.V.) 			 23	  22.33 EUR
Erfa-Kreis 	ALIENS                2223     2332    23323.33 EUR


Mitglieder (Voll) ....: 3232         DS-Abonnenten (Voll) ....:  323
Ermaessigte Mitglieder: 2323         Ermaessigte Abonnenten ..:   33
                        ====         Freiabonnements .........:   32
                 Total: 3232         Austauschabonnements ....:   23
                                     Im Presseverteiler sind .:   22
                                                                ====
                                                         Total:  333

Einnahmen aus
- Mitgliedern ....: 232323 EUR
- erm. Mitgliedern:  32323 EUR
- DS-Abos .....ca.:  23232 EUR
- erm. DS-Abos ca.:    232 EUR
                    ==========
             Total: 232332 EUR  Dies entspricht 32323 EUR im Monat.

Ausstaende ueber 3 Monate und nicht gekuendigt
- Mitglieder ....:  332
- erm. Mitglieder:  223



